{
  "shell_port": 40521,
  "iopub_port": 49833,
  "stdin_port": 59271,
  "control_port": 36457,
  "hb_port": 42583,
  "ip": "127.0.0.1",
  "key": "a45e089b-442cfcfbdbc24a54f9874325",
  "transport": "tcp",
  "signature_scheme": "hmac-sha256",
  "kernel_name": ""
}